{
  "general": {
  },
  "classes": [
    {
      "index": 0,
      "name": "Circle CCW",
      "inverse": "Circle CW",
      "input_json_path": "Assets/MlxUnity/hand.mlx/record_circle_ccw.json"
    },
    {
      "index": 1,
      "name": "Circle CW",
      "inverse": "Circle CCW",
      "input_json_path": "Assets/MlxUnity/hand.mlx/record_circle_cw.json"
    },
    {
      "index": 2,
      "name": "Come Here",
      "inverse": null,
      "input_json_path": "Assets/MlxUnity/hand.mlx/record_come_here.json"
    },
    {
      "index": 3,
      "name": "Fist",
      "inverse": null,
      "input_json_path": "Assets/MlxUnity/hand.mlx/record_fist.json"
    },
    {
      "index": 4,
      "name": "Point",
      "inverse": null,
      "input_json_path": "Assets/MlxUnity/hand.mlx/record_point.json"
    },
    {
      "index": 5,
      "name": "Rock n Roll",
      "inverse": null,
      "input_json_path": "Assets/MlxUnity/hand.mlx/record_rock_n_roll.json"
    },
    {
      "index": 6,
      "name": "Stop",
      "inverse": null,
      "input_json_path": "Assets/MlxUnity/hand.mlx/record_stop.json"
    },
    {
      "index": 7,
      "name": "Wave",
      "inverse": null,
      "input_json_path": "Assets/MlxUnity/hand.mlx/record_wave.json"
    }
  ],
  "record": {
    "class_index": 1,
    "min_movement_distance": 5,
    "max_trajectory_vector_magnitude": 5,
    "trajectory_count_min": 10,
    "trajectory_count_max": 30,
    "normalize_vectors": true,
    "scale_trajectories": true
  },
  "train": {
    "network": {
      "layers": [
        {
          "type": "flatten",
          "units": 0,
          "activation": "relu"
        },
        {
          "type": "dense",
          "units": 128,
          "activation": "relu"
        },
        {
          "type": "dense",
          "units": 128,
          "activation": "relu"
        }
      ]
    },
    "network_preset": "02_medium",
    "batch_size": 8,
    "epochs": 11,
    "model_path": "C:\\Users\\Marius\\Files\\Mirevi\\mlxunity\\mlxunity-unity-project\\Assets\\Resources\\model_132749890240870845.onnx",
    "optimizer": "adam",
    "optimizers": {
      "adam": {
        "learning_rate": 0.00150000001303852,
        "beta_1": 0.899999976158142,
        "beta_2": 0.999000012874603,
        "epsilon": 1.0000000116861E-07,
        "amsgrad": false
      },
      "adamax": {
        "learning_rate": 0.00100000004749745,
        "beta_1": 0.899999976158142,
        "beta_2": 0.999000012874603,
        "epsilon": 1.0000000116861E-07
      },
      "nadam": {
        "learning_rate": 0.00100000004749745,
        "beta_1": 0.899999976158142,
        "beta_2": 0.999000012874603,
        "epsilon": 1.0000000116861E-07
      },
      "adadelta": {
        "learning_rate": 9.99999974737875E-05,
        "rho": 0.949999988079071,
        "epsilon": 1.0000000116861E-07
      },
      "adagrad": {
        "learning_rate": 9.99999974737875E-05,
        "initial_accumulator_value": 0.100000001490116,
        "epsilon": 1.0000000116861E-07
      },
      "rmsprop": {
        "learning_rate": 9.99999974737875E-05,
        "momentum": 0,
        "rho": 0.899999976158142,
        "epsilon": 1.0000000116861E-07,
        "centered": false
      },
      "ftrl": {
        "learning_rate": 0.00100000004749745,
        "learning_rate_power": -0.5,
        "initial_accumulator_value": 0.100000001490116,
        "l1_regularization_strength": 0,
        "l2_regularization_strength": 0,
        "l2_shrinkage_regularization_strength": 0
      },
      "sgd": {
        "learning_rate": 0.00100000004749745,
        "momentum": 0,
        "nesterov": false
      }
    }
  }
}