{
    "name": "CollectionExtensions",
    "references": [
        "GUID:c7a17c21dfde0c740819647b1bc5cccc",
        "GUID:cf2330225187afb4ba1d074e88c8ebb8"
    ],
    "includePlatforms": [],
    "excludePlatforms": [],
    "allowUnsafeCode": false,
    "overrideReferences": false,
    "precompiledReferences": [],
    "autoReferenced": true,
    "defineConstraints": [],
    "versionDefines": [],
    "noEngineReferences": false
}